{
  "redirectEnabled" : true,
  "headers" : null,
  "requestBody" : null,
  "endpointAddress" : "https://www.googleapis.com/books/v1/volumes/?q={q}?country={country}",
  "queryParams" : null,
  "proxy" : null,
  "method" : "GET",
  "authType" : "NONE",
  "contentType" : "text/xml",
  "sampleRestResponse" : null
}