{
  "basePath" : "${rest.googleapis.basepath}",
  "tags" : [ {
    "description" : "Rest service swagger documentation",
    "name" : "RestServiceVirtualController"
  } ],
  "host" : "${rest.googleapis.host}",
  "paths" : {
    "/v1/volumes" : {
      "x-WM-TAG" : "RestServiceVirtualController",
      "x-WM-BASE_PATH" : "/v1/volumes",
      "get" : {
        "tags" : [ "RestServiceVirtualController" ],
        "x-WM-OPERATION_UID" : "95d981e5-907b-47fb-aad4-b7cc32030570",
        "x-WM-METHOD_NAME" : "invoke",
        "x-WM-ACCESS_SPECIFIER" : "APP_ONLY",
        "parameters" : [ {
          "description" : "q",
          "name" : "q",
          "x-WM-EDITABLE" : false,
          "required" : false,
          "type" : "string",
          "in" : "query"
        }, {
          "description" : "country",
          "name" : "country",
          "x-WM-EDITABLE" : false,
          "required" : false,
          "type" : "string",
          "in" : "query"
        } ],
        "consumes" : [ "text/xml" ],
        "responses" : {
          "200" : {
            "schema" : {
              "$ref" : "#/definitions/RootResponse"
            },
            "description" : "Success"
          }
        },
        "operationId" : "googleapis_RestServiceVirtualController-invoke"
      },
      "x-WM-RELATIVE_PATH" : ""
    }
  },
  "schemes" : [ "${rest.googleapis.scheme}" ],
  "swagger" : "2.0",
  "definitions" : {
    "itemsEntryItem" : {
      "x-WM-FULLY_QUALIFIED_NAME" : "googleapis.itemsEntryItem",
      "x-WM-TAGS" : [ "RestServiceVirtualController" ],
      "properties" : {
        "saleInfo" : {
          "$ref" : "#/definitions/saleInfo"
        },
        "id" : {
          "type" : "string"
        },
        "searchInfo" : {
          "$ref" : "#/definitions/searchInfo"
        },
        "etag" : {
          "type" : "string"
        },
        "volumeInfo" : {
          "$ref" : "#/definitions/volumeInfo"
        },
        "selfLink" : {
          "type" : "string"
        },
        "accessInfo" : {
          "$ref" : "#/definitions/accessInfo"
        },
        "kind" : {
          "type" : "string"
        }
      }
    },
    "saleInfo" : {
      "x-WM-FULLY_QUALIFIED_NAME" : "googleapis.saleInfo",
      "x-WM-TAGS" : [ "RestServiceVirtualController" ],
      "properties" : {
        "retailPrice" : {
          "$ref" : "#/definitions/retailPrice"
        },
        "saleability" : {
          "type" : "string"
        },
        "listPrice" : {
          "$ref" : "#/definitions/listPrice"
        },
        "offers" : {
          "x-WM-IS_LIST" : true,
          "items" : {
            "$ref" : "#/definitions/offersEntryItem"
          },
          "type" : "array"
        },
        "buyLink" : {
          "type" : "string"
        },
        "isEbook" : {
          "type" : "boolean"
        },
        "country" : {
          "type" : "string"
        }
      }
    },
    "RootResponse" : {
      "x-WM-FULLY_QUALIFIED_NAME" : "googleapis.RootResponse",
      "x-WM-TAGS" : [ "RestServiceVirtualController" ],
      "properties" : {
        "items" : {
          "x-WM-IS_LIST" : true,
          "items" : {
            "$ref" : "#/definitions/itemsEntryItem"
          },
          "type" : "array"
        },
        "totalItems" : {
          "format" : "int32",
          "type" : "integer"
        },
        "kind" : {
          "type" : "string"
        }
      }
    },
    "retailPrice" : {
      "x-WM-FULLY_QUALIFIED_NAME" : "googleapis.retailPrice",
      "x-WM-TAGS" : [ "RestServiceVirtualController" ],
      "properties" : {
        "amount" : {
          "format" : "double",
          "type" : "number"
        },
        "amountInMicros" : {
          "format" : "int32",
          "type" : "integer"
        },
        "currencyCode" : {
          "type" : "string"
        }
      }
    },
    "searchInfo" : {
      "x-WM-FULLY_QUALIFIED_NAME" : "googleapis.searchInfo",
      "x-WM-TAGS" : [ "RestServiceVirtualController" ],
      "properties" : {
        "textSnippet" : {
          "type" : "string"
        }
      }
    },
    "listPrice" : {
      "x-WM-FULLY_QUALIFIED_NAME" : "googleapis.listPrice",
      "x-WM-TAGS" : [ "RestServiceVirtualController" ],
      "properties" : {
        "amount" : {
          "format" : "int32",
          "type" : "integer"
        },
        "amountInMicros" : {
          "format" : "int32",
          "type" : "integer"
        },
        "currencyCode" : {
          "type" : "string"
        }
      }
    },
    "readingModes" : {
      "x-WM-FULLY_QUALIFIED_NAME" : "googleapis.readingModes",
      "x-WM-TAGS" : [ "RestServiceVirtualController" ],
      "properties" : {
        "text" : {
          "type" : "boolean"
        },
        "image" : {
          "type" : "boolean"
        }
      }
    },
    "epub" : {
      "x-WM-FULLY_QUALIFIED_NAME" : "googleapis.epub",
      "x-WM-TAGS" : [ "RestServiceVirtualController" ],
      "properties" : {
        "downloadLink" : {
          "type" : "string"
        },
        "acsTokenLink" : {
          "type" : "string"
        },
        "isAvailable" : {
          "type" : "boolean"
        }
      }
    },
    "industryIdentifiersEntryItem" : {
      "x-WM-FULLY_QUALIFIED_NAME" : "googleapis.industryIdentifiersEntryItem",
      "x-WM-TAGS" : [ "RestServiceVirtualController" ],
      "properties" : {
        "type" : {
          "type" : "string"
        },
        "identifier" : {
          "type" : "string"
        }
      }
    },
    "pdf" : {
      "x-WM-FULLY_QUALIFIED_NAME" : "googleapis.pdf",
      "x-WM-TAGS" : [ "RestServiceVirtualController" ],
      "properties" : {
        "downloadLink" : {
          "type" : "string"
        },
        "acsTokenLink" : {
          "type" : "string"
        },
        "isAvailable" : {
          "type" : "boolean"
        }
      }
    },
    "volumeInfo" : {
      "x-WM-FULLY_QUALIFIED_NAME" : "googleapis.volumeInfo",
      "x-WM-TAGS" : [ "RestServiceVirtualController" ],
      "properties" : {
        "pageCount" : {
          "format" : "int32",
          "type" : "integer"
        },
        "averageRating" : {
          "format" : "int32",
          "type" : "integer"
        },
        "readingModes" : {
          "$ref" : "#/definitions/readingModes"
        },
        "infoLink" : {
          "type" : "string"
        },
        "printType" : {
          "type" : "string"
        },
        "allowAnonLogging" : {
          "type" : "boolean"
        },
        "publisher" : {
          "type" : "string"
        },
        "authors" : {
          "x-WM-IS_LIST" : true,
          "items" : {
            "type" : "string"
          },
          "type" : "array"
        },
        "canonicalVolumeLink" : {
          "type" : "string"
        },
        "title" : {
          "type" : "string"
        },
        "previewLink" : {
          "type" : "string"
        },
        "ratingsCount" : {
          "format" : "int32",
          "type" : "integer"
        },
        "description" : {
          "type" : "string"
        },
        "imageLinks" : {
          "$ref" : "#/definitions/imageLinks"
        },
        "subtitle" : {
          "type" : "string"
        },
        "contentVersion" : {
          "type" : "string"
        },
        "categories" : {
          "x-WM-IS_LIST" : true,
          "items" : {
            "type" : "string"
          },
          "type" : "array"
        },
        "language" : {
          "type" : "string"
        },
        "publishedDate" : {
          "type" : "string"
        },
        "industryIdentifiers" : {
          "x-WM-IS_LIST" : true,
          "items" : {
            "$ref" : "#/definitions/industryIdentifiersEntryItem"
          },
          "type" : "array"
        },
        "maturityRating" : {
          "type" : "string"
        }
      }
    },
    "imageLinks" : {
      "x-WM-FULLY_QUALIFIED_NAME" : "googleapis.imageLinks",
      "x-WM-TAGS" : [ "RestServiceVirtualController" ],
      "properties" : {
        "thumbnail" : {
          "type" : "string"
        },
        "smallThumbnail" : {
          "type" : "string"
        }
      }
    },
    "rentalDuration" : {
      "x-WM-FULLY_QUALIFIED_NAME" : "googleapis.rentalDuration",
      "x-WM-TAGS" : [ "RestServiceVirtualController" ],
      "properties" : {
        "unit" : {
          "type" : "string"
        },
        "count" : {
          "format" : "int32",
          "type" : "integer"
        }
      }
    },
    "accessInfo" : {
      "x-WM-FULLY_QUALIFIED_NAME" : "googleapis.accessInfo",
      "x-WM-TAGS" : [ "RestServiceVirtualController" ],
      "properties" : {
        "webReaderLink" : {
          "type" : "string"
        },
        "textToSpeechPermission" : {
          "type" : "string"
        },
        "publicDomain" : {
          "type" : "boolean"
        },
        "viewability" : {
          "type" : "string"
        },
        "accessViewStatus" : {
          "type" : "string"
        },
        "pdf" : {
          "$ref" : "#/definitions/pdf"
        },
        "epub" : {
          "$ref" : "#/definitions/epub"
        },
        "embeddable" : {
          "type" : "boolean"
        },
        "quoteSharingAllowed" : {
          "type" : "boolean"
        },
        "country" : {
          "type" : "string"
        }
      }
    },
    "offersEntryItem" : {
      "x-WM-FULLY_QUALIFIED_NAME" : "googleapis.offersEntryItem",
      "x-WM-TAGS" : [ "RestServiceVirtualController" ],
      "properties" : {
        "retailPrice" : {
          "$ref" : "#/definitions/retailPrice"
        },
        "listPrice" : {
          "$ref" : "#/definitions/listPrice"
        },
        "finskyOfferType" : {
          "format" : "int32",
          "type" : "integer"
        },
        "rentalDuration" : {
          "$ref" : "#/definitions/rentalDuration"
        }
      }
    }
  },
  "info" : {
    "x-WM-SERVICE_TYPE" : "RestService",
    "x-WM-PROXY-USERNAME" : "${rest.googleapis.proxy.username}",
    "x-WM-API_ID" : "64103cd2-7f82-4e2e-93d8-7b46c76d2128",
    "x-WM-PROXY-PORT" : "${rest.googleapis.proxy.port}",
    "x-WM-USE_PROXY_FOR_WEB" : true,
    "x-WM-PROXY-HOSTNAME" : "${rest.googleapis.proxy.hostname}",
    "x-WM-PROXY-PASSWORD" : "${rest.googleapis.proxy.password}",
    "x-WM-SERVICE_ID" : "googleapis",
    "x-WM-PROXY-ENABLED" : "${rest.googleapis.proxy.enabled}",
    "x-WM-USE_PROXY_FOR_MOBILE" : true,
    "version" : "2.0"
  }
}