{
  "goToPage-Details" : {
    "_id" : "wm-goToPage-Details-wm.NavigationVariable-1440597551416",
    "name" : "goToPage-Details",
    "owner" : "Page",
    "category" : "wm.NavigationVariable",
    "dataBinding" : [ ],
    "operation" : "gotoView",
    "pageName" : "Main",
    "viewName" : "bookDetails",
    "pageTransitions" : "none"
  }
}