{
  "addBookManualPage" : {
    "_id" : "wm-addBookManualPage-wm.NavigationVariable-1447215225440",
    "name" : "addBookManualPage",
    "owner" : "Page",
    "category" : "wm.NavigationVariable",
    "dataBinding" : [ ],
    "operation" : "gotoSegment",
    "pageName" : "AddBook",
    "segmentName" : "manualSegment",
    "pageTransitions" : "slide"
  },
  "deleteBook" : {
    "_id" : "wm-deleteBook-wm.LiveVariable-1440605325428",
    "name" : "deleteBook",
    "owner" : "Page",
    "category" : "wm.LiveVariable",
    "dataBinding" : [ {
      "target" : "id",
      "value" : "bind:Variables.bookDetailsPage.dataSet.book.id",
      "type" : "number"
    } ],
    "operation" : "delete",
    "dataSet" : [ ],
    "type" : "Book",
    "isList" : false,
    "saveInPhonegap" : false,
    "firstRow" : 0,
    "maxResults" : 20,
    "designMaxResults" : 10,
    "onSuccess" : "deleteBookonSuccess($event, $scope);Variables.allBooks.listRecords();Variables.readingBooks.listRecords();Variables.mywishlist.listRecords();Variables.readBooks.listRecords()",
    "inFlightBehavior" : "executeLast",
    "startUpdate" : false,
    "autoUpdate" : false,
    "transformationRequired" : false,
    "liveSource" : "LIBRARY",
    "ignoreCase" : true,
    "matchMode" : "start",
    "propertiesMap" : {
      "columns" : [ {
        "fieldName" : "category",
        "type" : "integer",
        "fullyQualifiedType" : "integer",
        "columnName" : "CATEGORYID",
        "isPrimaryKey" : false,
        "notNull" : true,
        "length" : 255,
        "precision" : 10,
        "generator" : "assigned",
        "isRelated" : true,
        "defaultValue" : "0",
        "relatedTableName" : "CATEGORY",
        "relatedEntityName" : "Category",
        "relatedFieldName" : "category.cid",
        "isList" : false,
        "targetTable" : "CATEGORY",
        "scale" : 0,
        "columns" : [ {
          "fieldName" : "cid",
          "type" : "integer",
          "fullyQualifiedType" : "integer",
          "columnName" : "CID",
          "isPrimaryKey" : true,
          "notNull" : true,
          "length" : 255,
          "precision" : 10,
          "generator" : "identity",
          "isRelated" : false,
          "scale" : 0
        }, {
          "fieldName" : "name",
          "type" : "string",
          "fullyQualifiedType" : "string",
          "columnName" : "NAME",
          "isPrimaryKey" : false,
          "notNull" : false,
          "length" : 255,
          "precision" : 19,
          "generator" : "assigned",
          "isRelated" : false,
          "scale" : 0
        }, {
          "fieldName" : "imageUrl",
          "type" : "string",
          "fullyQualifiedType" : "string",
          "columnName" : "IMAGE_URL",
          "isPrimaryKey" : false,
          "notNull" : false,
          "length" : 255,
          "precision" : 19,
          "generator" : "assigned",
          "isRelated" : false,
          "scale" : 0
        }, {
          "fieldName" : "tenantid",
          "type" : "string",
          "fullyQualifiedType" : "string",
          "columnName" : "TENANTID",
          "isPrimaryKey" : false,
          "notNull" : false,
          "length" : 255,
          "precision" : 19,
          "generator" : "assigned",
          "isRelated" : false,
          "scale" : 0
        } ]
      }, {
        "fieldName" : "id",
        "type" : "integer",
        "fullyQualifiedType" : "integer",
        "columnName" : "ID",
        "isPrimaryKey" : true,
        "notNull" : true,
        "length" : 255,
        "precision" : 10,
        "generator" : "identity",
        "isRelated" : false,
        "scale" : 0
      }, {
        "fieldName" : "author",
        "type" : "string",
        "fullyQualifiedType" : "string",
        "columnName" : "AUTHOR",
        "isPrimaryKey" : false,
        "notNull" : false,
        "length" : 255,
        "precision" : 19,
        "generator" : "assigned",
        "isRelated" : false,
        "scale" : 0
      }, {
        "fieldName" : "imageUrl",
        "type" : "string",
        "fullyQualifiedType" : "string",
        "columnName" : "IMAGE_URL",
        "isPrimaryKey" : false,
        "notNull" : false,
        "length" : 255,
        "precision" : 19,
        "generator" : "assigned",
        "isRelated" : false,
        "scale" : 0
      }, {
        "fieldName" : "isbn",
        "type" : "string",
        "fullyQualifiedType" : "string",
        "columnName" : "ISBN",
        "isPrimaryKey" : false,
        "notNull" : false,
        "length" : 255,
        "precision" : 19,
        "generator" : "assigned",
        "isRelated" : false,
        "scale" : 0
      }, {
        "fieldName" : "publisher",
        "type" : "string",
        "fullyQualifiedType" : "string",
        "columnName" : "PUBLISHER",
        "isPrimaryKey" : false,
        "notNull" : false,
        "length" : 255,
        "precision" : 19,
        "generator" : "assigned",
        "isRelated" : false,
        "scale" : 0
      }, {
        "fieldName" : "readStatus",
        "type" : "integer",
        "fullyQualifiedType" : "integer",
        "columnName" : "READ_STATUS",
        "isPrimaryKey" : false,
        "notNull" : false,
        "length" : 255,
        "precision" : 10,
        "generator" : "assigned",
        "isRelated" : false,
        "defaultValue" : "-1",
        "scale" : 0
      }, {
        "fieldName" : "title",
        "type" : "string",
        "fullyQualifiedType" : "string",
        "columnName" : "TITLE",
        "isPrimaryKey" : false,
        "notNull" : true,
        "length" : 255,
        "precision" : 19,
        "generator" : "assigned",
        "isRelated" : false,
        "scale" : 0
      }, {
        "fieldName" : "description",
        "type" : "string",
        "fullyQualifiedType" : "string",
        "columnName" : "DESCRIPTION",
        "isPrimaryKey" : false,
        "notNull" : false,
        "length" : 1024,
        "precision" : 19,
        "generator" : "assigned",
        "isRelated" : false,
        "scale" : 0
      }, {
        "fieldName" : "rating",
        "type" : "integer",
        "fullyQualifiedType" : "integer",
        "columnName" : "RATING",
        "isPrimaryKey" : false,
        "notNull" : false,
        "length" : 255,
        "precision" : 10,
        "generator" : "assigned",
        "isRelated" : false,
        "defaultValue" : "3",
        "scale" : 0
      }, {
        "fieldName" : "tenantid",
        "type" : "string",
        "fullyQualifiedType" : "string",
        "columnName" : "TENANTID",
        "isPrimaryKey" : false,
        "notNull" : false,
        "length" : 255,
        "precision" : 19,
        "generator" : "assigned",
        "isRelated" : false,
        "scale" : 0
      } ],
      "entityName" : "Book",
      "fullyQualifiedName" : "com.books.library.Book",
      "tableType" : "TABLE",
      "primaryFields" : [ "id" ]
    },
    "tableName" : "BOOK",
    "tableType" : "TABLE",
    "properties" : [ "category" ],
    "relatedTables" : [ {
      "columnName" : "category",
      "relationName" : "category",
      "type" : "Category",
      "watchOn" : "LIBRARYCategoryData",
      "package" : "com.books.library.Book"
    } ],
    "filterFields" : { },
    "inputFields" : { },
    "package" : "com.books.library.Book"
  },
  "getISBNdata" : {
    "_id" : "wm-getISBNdata-wm.ServiceVariable-1446554796627",
    "name" : "getISBNdata",
    "owner" : "Page",
    "category" : "wm.ServiceVariable",
    "dataBinding" : [ {
      "target" : "q",
      "value" : "bind:'isbn:'+Widgets.barcodescanner.datavalue",
      "type" : "string"
    } ],
    "type" : "isbnLookup.RootResponse",
    "service" : "isbnLookup",
    "operation" : "invoke",
    "operationId" : "isbnLookup_RestServiceVirtualController-invoke",
    "operationType" : "get",
    "serviceType" : "RestService",
    "dataSet" : {
      "dataValue" : ""
    },
    "isList" : false,
    "firstRow" : 0,
    "maxResults" : 20,
    "designMaxResults" : 10,
    "onSuccess" : "getISBNdataonSuccess($event, $scope)",
    "startUpdate" : false,
    "autoUpdate" : false,
    "inFlightBehavior" : "executeLast",
    "transformationRequired" : false,
    "saveInPhonegap" : false
  },
  "LIBRARYUpdateCategoryDetails" : {
    "_id" : "wm-LIBRARYUpdateCategoryDetails-wm.ServiceVariable-1445878495387",
    "name" : "LIBRARYUpdateCategoryDetails",
    "owner" : "Page",
    "category" : "wm.ServiceVariable",
    "dataBinding" : [ {
      "isList" : false,
      "target" : "categoryid",
      "value" : "bind:Widgets.select5.datavalue"
    }, {
      "isList" : false,
      "target" : "bookid",
      "value" : "bind:Variables.bookDetailsPage.dataSet.book.id | toNumber"
    } ],
    "type" : "LIBRARYUpdateCategoryDetailsrtnType",
    "service" : "LIBRARY",
    "operation" : "executeUpdateCategoryDetails",
    "operationId" : "QueryExecutionController_executeUpdateCategoryDetails",
    "operationType" : "put",
    "serviceType" : "DataService",
    "serviceSubType" : "query",
    "dataSet" : {
      "dataValue" : ""
    },
    "isList" : false,
    "firstRow" : 0,
    "maxResults" : 20,
    "designMaxResults" : 10,
    "onSuccess" : "Variables.allBooks.listRecords();Variables.mywishlist.listRecords();Variables.readingBooks.listRecords();Variables.readBooks.listRecords();LIBRARYUpdateCategoryDetailsonSuccess($event, $scope)",
    "startUpdate" : false,
    "autoUpdate" : false,
    "inFlightBehavior" : "executeLast",
    "transformationRequired" : false,
    "saveInPhonegap" : false,
    "isDefault" : true
  },
  "updateBookRating" : {
    "_id" : "wm-updateBookRating-LIBRARYUpdateBookRating-wm.ServiceVariable-1441880458480",
    "name" : "updateBookRating",
    "owner" : "Page",
    "category" : "wm.ServiceVariable",
    "dataBinding" : [ {
      "isList" : false,
      "target" : "rating",
      "value" : "bind:Widgets.rating1.datavalue"
    }, {
      "isList" : false,
      "target" : "id",
      "value" : "bind:Variables.bookDetailsPage.dataSet.book.id"
    } ],
    "type" : "LIBRARYupdateBookRatingrtnType",
    "service" : "LIBRARY",
    "operation" : "executeUpdateBookRating",
    "operationId" : "QueryExecutionController_executeUpdateBookRating",
    "operationType" : "put",
    "serviceType" : "DataService",
    "serviceSubType" : "query",
    "dataSet" : {
      "dataValue" : ""
    },
    "isList" : false,
    "firstRow" : 0,
    "maxResults" : 20,
    "designMaxResults" : 10,
    "onSuccess" : "Variables.allBooks.listRecords();Variables.mywishlist.listRecords();Variables.readingBooks.listRecords();Variables.readBooks.listRecords();updateBookRatingonSuccess($event, $scope)",
    "startUpdate" : false,
    "autoUpdate" : false,
    "inFlightBehavior" : "executeLast",
    "transformationRequired" : false,
    "saveInPhonegap" : false,
    "isDefault" : true
  },
  "updateBookStatus" : {
    "_id" : "wm-updateBookStatus-LIBRARYUpdateBookStatus-wm.ServiceVariable-1440656063785",
    "name" : "updateBookStatus",
    "owner" : "Page",
    "category" : "wm.ServiceVariable",
    "dataBinding" : [ {
      "isList" : false,
      "target" : "readStatus",
      "value" : "bind:Widgets.readStatus.datavalue"
    }, {
      "isList" : false,
      "target" : "id",
      "value" : "bind:Variables.bookDetailsPage.dataSet.book.id"
    } ],
    "type" : "LIBRARYupdateBookStatusrtnType",
    "service" : "LIBRARY",
    "operation" : "executeUpdateBookStatus",
    "operationId" : "QueryExecutionController_executeUpdateBookStatus",
    "operationType" : "put",
    "serviceType" : "DataService",
    "serviceSubType" : "query",
    "dataSet" : {
      "dataValue" : ""
    },
    "isList" : false,
    "firstRow" : 0,
    "maxResults" : 20,
    "designMaxResults" : 10,
    "onSuccess" : "Variables.allBooks.listRecords();Variables.readingBooks.listRecords();Variables.mywishlist.listRecords();Variables.readBooks.listRecords();updateBookStatusonSuccess($event, $scope)",
    "startUpdate" : false,
    "autoUpdate" : false,
    "inFlightBehavior" : "executeAll",
    "transformationRequired" : false,
    "saveInPhonegap" : false,
    "isDefault" : true
  }
}